2, 33364, 1334, 20, 21, 20,  0, 33692, 33469, 33611,     0, 1, 0, 1, 1, 875.25, -0.17334, 2990.1
4, 33365, 1334, 20, 21, 20, 21, 33692, 33469, 33611, 33545, 1, 0, 1, 0, 875.25, -0.16040, 890.9
4, 55947, 2237, 44, 44, 44, 44, 56177, 56120, 56149, 56146, 0, 1, 0, 1, 1857.75, 0.05127, 3644.5
2, 11173,  446, 22, 22, 22,  0, 11341, 11358, 11413,     0, 0, 1, 0, 0, 933.00, -0.15405, 1.3
2, 11195,  447, 22, 22,  0, 22, 11341, 11358,     0, 11201, 0, 1, 1, 0, 930.50, -0.34619, 0.1
2, 11103,  444,  0, 22, 22, 22,     0, 11358, 11413, 11201, 1, 1, 0, 0, 933.00, -0.73096, 1.1
2, 11199,  447, 22,  0, 22, 22, 11341,     0, 11413, 11201, 1, 0, 0, 1, 938.25, -0.73071, 0.2
2, 11151,  446,  0, 22, 22, 22,     0, 11358, 11413, 11201, 1, 1, 0, 1, 933.00, -0.32715, 3049.5
4, 55752, 2230, 34, 34, 34, 34, 56068, 55820, 56082, 55792, 0, 1, 0, 1, 1431.00, -0.05127, 3636.5
4, 78022, 3120, 41, 41, 41, 42, 78068, 78389, 78036, 78378, 0, 1, 0, 0, 1742.75, 0.10254, 2257.8
2, 78494, 3139, 36, 36, 36,  0, 78635, 78764, 78598,     0, 0, 1, 0, 0, 1527.00, 0.07690, 0.0
2, 78580, 3143, 36, 36,  0, 36, 78635, 78764,     0, 78738, 0, 1, 1, 0, 1516.75, -0.68579, 846.2
2, 78490, 3139, 36, 36,  0, 36, 78635, 78764,     0, 78738, 1, 1, 1, 0, 1519.75, -1.07666, 3.6
2, 78514, 3140, 36,  0, 36, 36, 78635,     0, 78598, 78738, 1, 0, 0, 1, 1531.75, -0.39746, 440.9
2, 78478, 3139,  0, 36, 36, 36,     0, 78764, 78598, 78738, 1, 1, 0, 1, 1527.00, -0.05786, 3090.9
2, 12278,  491, 44, 45,  0, 45, 12627, 12325,     0, 12336, 1, 0, 1, 0, 1887.25, -0.01929, 3066.2
2, 12296,  491, 44, 45,  0, 45, 12627, 12325,     0, 12336, 1, 0, 1, 1, 1889.25, 0.13452, 3062.5
2, 78795, 3151,  8,  0,  8,  8, 79075,     0, 79060, 78932, 0, 1, 0, 1, 342.50, 0.03198, 2164.5
2, 78805, 3152,  8,  0,  8,  8, 79075,     0, 79060, 78932, 1, 1, 0, 0, 350.25, -1.08325, 2159.2
2, 78883, 3155,  8,  0,  8,  8, 79075,     0, 79060, 78932, 1, 1, 0, 1, 352.75, -0.73706, 3574.3
4, 79169, 3166, 44, 44, 44, 44, 79444, 79294, 79416, 79332, 0, 1, 0, 1, 1855.50, 0.06396, 930.8
4, 34546, 1381, 20, 20, 20, 20, 34707, 34746, 34760, 34696, 0, 1, 0, 1, 850.25, -0.11548, 20.5
2, 55889, 2235,  6,  7,  6,  0, 56191, 56199, 56032,     0, 1, 0, 0, 0, 271.25, -0.92334, 2.1
2, 55959, 2238,  6,  7,  6,  0, 56191, 56199, 56032,     0, 1, 0, 1, 1, 278.75, -0.33667, 719.5
4, 12362,  494, 22, 23, 22, 23, 12550, 12575, 12521, 12610, 1, 0, 1, 0, 953.75, -0.05786, 4061.6
4, 55965, 2238, 25, 26, 25, 26, 56146, 56200, 56088, 56264, 1, 0, 1, 0, 1078.25, -0.12183, 3629.8
4, 57150, 2286, 32, 32, 32, 32, 57378, 57319, 57364, 57328, 0, 1, 0, 1, 1353.00, 0.01904, 42.0
2, 78430, 3137, 36, 37,  0, 37, 78791, 78464,     0, 78467, 1, 0, 1, 0, 1552.25, -0.01294, 464.3
2, 78436, 3137, 36, 37,  0, 37, 78791, 78464,     0, 78467, 1, 0, 1, 1, 1553.75, 0.08960, 538.0
2, 55964, 2238,  0, 26, 25, 26,     0, 56200, 56088, 56264, 0, 0, 1, 0, 1078.25, -0.13477, 3120.7
2, 56022, 2240, 25,  0, 25, 26, 56146,     0, 56088, 56264, 0, 0, 1, 0, 1071.75, 0.37158, 3248.6
2, 55966, 2238, 25,  0, 25, 26, 56146,     0, 56088, 56264, 1, 0, 1, 0, 1078.25, -0.12183, 2162.9
2, 78490, 3139, 25, 26, 25,  0, 78703, 78667, 78709,     0, 1, 0, 1, 1, 1082.50, 0.00952, 733.3
2, 78575, 3143, 25, 26, 25,  0, 78703, 78837, 78709,     0, 1, 0, 1, 1, 1078.00, 0.01904, 3013.1
2, 55897, 2235, 25, 26,  0, 26, 56146, 56200,     0, 56264, 0, 0, 1, 1, 1084.75, 1.38428, 6.0
2, 55961, 2238, 25, 26,  0, 26, 56146, 56200,     0, 56264, 1, 0, 1, 0, 1078.25, -0.13477, 3057.2
2, 56058, 2242, 25, 26,  0, 26, 56146, 56200,     0, 56264, 1, 0, 1, 1, 1089.25, 0.69849, 840.4
4, 78573, 3142, 25, 26, 25, 26, 78703, 78837, 78709, 78800, 1, 0, 1, 0, 1078.75, 0.04468, 2263.9
4, 34163, 1366,  5,  5,  5,  5, 34217, 34413, 34389, 34232, 0, 1, 0, 1, 220.75, -0.37817, 3629.8
2, 78134, 3125,  5,  6,  5,  0, 78417, 78307, 78293,     0, 1, 0, 1, 1, 241.00, -0.25977, 712.7
2, 78134, 3125,  0,  6,  5,  6,     0, 78307, 78293, 78429, 0, 0, 1, 0, 241.00, -0.25024, 3151.8
2, 34162, 1366,  5,  5,  5,  0, 34217, 34413, 34389,     0, 0, 1, 0, 0, 221.00, -0.36548, 3042.3
2, 34193, 1367,  5,  5,  5,  0, 34217, 34413, 34511,     0, 0, 1, 0, 0, 217.75, -0.60596, 699.1
4, 78137, 3125,  5,  6,  5,  6, 78417, 78307, 78293, 78429, 1, 0, 1, 0, 241.00, -0.25000, 0.0
2, 12344,  493,  0, 37, 36, 37,     0, 12521, 12553, 12528, 0, 0, 1, 0, 1544.25, -0.00977, 824.7
2, 12169,  486,  0, 37, 36, 37,     0, 12521, 12553, 12528, 0, 1, 1, 0, 1563.25, -1.47144, 875.4
4, 56820, 2272, 35, 36, 35, 36, 56992, 57003, 57061, 56929, 1, 0, 1, 0, 1503.25, 0.15381, 4088.1
4,  9742,  389, 35, 36, 35, 36, 10080,  9821, 10028,  9860, 1, 0, 1, 0, 1507.50, -0.08984, 2269.0
4, 56363, 2254, 21, 22, 21, 21, 56412, 56720, 56381, 56722, 1, 0, 1, 1, 903.25, -0.10913, 3697.8
4,  9766,  390,  7,  7,  6,  7, 10080,  9783, 10080,  9917, 0, 1, 1, 0, 292.00, -0.30762, 48.3
4, 12628,  505, 38, 38, 38, 38, 12908, 12732, 12910, 12742, 0, 1, 0, 1, 1602.00, 0.00000, 0.0
4, 12441,  497, 15, 15, 14, 15, 12822, 12475, 12754, 12562, 0, 0, 1, 0, 627.00, -0.17944, 916.6
4, 77892, 3115, 26, 26, 26, 26, 78206, 77957, 78218, 77953, 0, 1, 0, 1, 1095.50, -0.01929, 12.2
2, 56257, 2250, 17, 18, 17,  0, 56433, 56614, 56368,     0, 1, 0, 0, 0, 732.75, -0.59644, 2984.4
2, 56311, 2252, 17, 18, 17,  0, 56433, 56614, 56368,     0, 1, 0, 1, 1, 738.75, -0.13477, 3024.7
2, 56405, 2256, 18, 18, 18,  0, 56626, 56614, 56550,     0, 0, 1, 0, 0, 768.25, 0.15381, 0.0
2, 56268, 2250, 18, 19, 18,  0, 56626, 56339, 56550,     0, 1, 0, 1, 1, 793.25, -0.15405, 1.3
2, 56250, 2250, 18, 19, 18,  0, 56626, 56601, 56550,     0, 1, 0, 0, 0, 769.75, -1.40430, 2934.2
2, 56399, 2255, 18, 19, 18,  0, 56626, 56601, 56550,     0, 1, 0, 1, 1, 786.00, -0.16357, 2786.4
4, 56244, 2249, 17, 18, 17, 17, 56433, 56614, 56368, 56347, 1, 0, 0, 1, 732.25, -0.65381, 4064.1
4, 56271, 2250, 18, 19, 18, 19, 56626, 56339, 56550, 56427, 1, 0, 1, 0, 792.75, -0.16040, 3590.9
4, 78709, 3148, 12, 12, 12, 12, 78720, 79060, 78827, 78916, 0, 1, 0, 1, 519.75, -0.24365, 3583.3
4, 11811,  472,  4,  5,  5,  5, 12051, 11863, 12156, 11953, 1, 0, 0, 1, 209.75, 0.39722, 2293.8
